…
# Add regression coefficient
# get adjusted r squared
models <- models %>%
  mutate(adj_r = map(model, function(x) {
    glance(x) %>%
      pull(adj.r.squared)
  })
  %>% unlist())
print(models)
#> # A tibble: 41 x 4
#>     lead data                   model  adj_r
#>    <dbl> <list>                 <list> <dbl>
#>  1     0 <tibble[,3] [352 × 3]> <lm>   0.773
#>  2     1 <tibble[,3] [352 × 3]> <lm>   0.790
#>  3     2 <tibble[,3] [352 × 3]> <lm>   0.805
#>  4     3 <tibble[,3] [352 × 3]> <lm>   0.819
#>  5     4 <tibble[,3] [352 × 3]> <lm>   0.833
#>  6     5 <tibble[,3] [352 × 3]> <lm>   0.846
#>  7     6 <tibble[,3] [352 × 3]> <lm>   0.858
#>  8     7 <tibble[,3] [352 × 3]> <lm>   0.868
#>  9     8 <tibble[,3] [352 × 3]> <lm>   0.878
#> 10     9 <tibble[,3] [352 × 3]> <lm>   0.887
#> # … with 31 more rows
```
…
