…
# Add regression coefficient
# get adjusted r squared
models <- models %>%
  mutate(adj_r = map(model, function(x) {
    glance(x) %>%
      pull(adj.r.squared)
  })
  %>% unlist())
print(models)
#> # A tibble: 41 x 4
#>     lead data                   model  adj_r
#>    <dbl> <list>                 <list> <dbl>
#>  1     0 <tibble[,3] [218 × 3]> <lm>   0.164
#>  2     1 <tibble[,3] [218 × 3]> <lm>   0.187
#>  3     2 <tibble[,3] [218 × 3]> <lm>   0.212
#>  4     3 <tibble[,3] [218 × 3]> <lm>   0.241
#>  5     4 <tibble[,3] [218 × 3]> <lm>   0.272
#>  6     5 <tibble[,3] [218 × 3]> <lm>   0.307
#>  7     6 <tibble[,3] [218 × 3]> <lm>   0.343
#>  8     7 <tibble[,3] [218 × 3]> <lm>   0.383
#>  9     8 <tibble[,3] [218 × 3]> <lm>   0.424
#> 10     9 <tibble[,3] [218 × 3]> <lm>   0.467
#> # … with 31 more rows
```
…
